%!PS-Adobe-3.0 EPSF-3.0
%%Creator: Tk Canvas Widget
%%For: Daniel Schulte
%%Title: Window .c1
%%CreationDate: Sat May 16 16:10:42 1998
%%BoundingBox: -126 279 739 513
%%Pages: 1
%%DocumentData: Clean7Bit
%%Orientation: Portrait
%%EndComments

%%BeginProlog
50 dict begin

% This is a standard prolog for Postscript generated by Tk's canvas
% widget.
% SCCS: @(#) prolog.ps 1.7 96/07/08 17:52:14

% The definitions below just define all of the variables used in
% any of the procedures here.  This is needed for obscure reasons
% explained on p. 716 of the Postscript manual (Section H.2.7,
% "Initializing Variables," in the section on Encapsulated Postscript).

/baseline 0 def
/stipimage 0 def
/height 0 def
/justify 0 def
/lineLength 0 def
/spacing 0 def
/stipple 0 def
/strings 0 def
/xoffset 0 def
/yoffset 0 def
/tmpstip null def

% Define the array ISOLatin1Encoding (which specifies how characters are
% encoded for ISO-8859-1 fonts), if it isn't already present (Postscript
% level 2 is supposed to define it, but level 1 doesn't).

systemdict /ISOLatin1Encoding known not {
    /ISOLatin1Encoding [
	/space /space /space /space /space /space /space /space
	/space /space /space /space /space /space /space /space
	/space /space /space /space /space /space /space /space
	/space /space /space /space /space /space /space /space
	/space /exclam /quotedbl /numbersign /dollar /percent /ampersand
	    /quoteright
	/parenleft /parenright /asterisk /plus /comma /minus /period /slash
	/zero /one /two /three /four /five /six /seven
	/eight /nine /colon /semicolon /less /equal /greater /question
	/at /A /B /C /D /E /F /G
	/H /I /J /K /L /M /N /O
	/P /Q /R /S /T /U /V /W
	/X /Y /Z /bracketleft /backslash /bracketright /asciicircum /underscore
	/quoteleft /a /b /c /d /e /f /g
	/h /i /j /k /l /m /n /o
	/p /q /r /s /t /u /v /w
	/x /y /z /braceleft /bar /braceright /asciitilde /space
	/space /space /space /space /space /space /space /space
	/space /space /space /space /space /space /space /space
	/dotlessi /grave /acute /circumflex /tilde /macron /breve /dotaccent
	/dieresis /space /ring /cedilla /space /hungarumlaut /ogonek /caron
	/space /exclamdown /cent /sterling /currency /yen /brokenbar /section
	/dieresis /copyright /ordfeminine /guillemotleft /logicalnot /hyphen
	    /registered /macron
	/degree /plusminus /twosuperior /threesuperior /acute /mu /paragraph
	    /periodcentered
	/cedillar /onesuperior /ordmasculine /guillemotright /onequarter
	    /onehalf /threequarters /questiondown
	/Agrave /Aacute /Acircumflex /Atilde /Adieresis /Aring /AE /Ccedilla
	/Egrave /Eacute /Ecircumflex /Edieresis /Igrave /Iacute /Icircumflex
	    /Idieresis
	/Eth /Ntilde /Ograve /Oacute /Ocircumflex /Otilde /Odieresis /multiply
	/Oslash /Ugrave /Uacute /Ucircumflex /Udieresis /Yacute /Thorn
	    /germandbls
	/agrave /aacute /acircumflex /atilde /adieresis /aring /ae /ccedilla
	/egrave /eacute /ecircumflex /edieresis /igrave /iacute /icircumflex
	    /idieresis
	/eth /ntilde /ograve /oacute /ocircumflex /otilde /odieresis /divide
	/oslash /ugrave /uacute /ucircumflex /udieresis /yacute /thorn
	    /ydieresis
    ] def
} if

% font ISOEncode font
% This procedure changes the encoding of a font from the default
% Postscript encoding to ISOLatin1.  It's typically invoked just
% before invoking "setfont".  The body of this procedure comes from
% Section 5.6.1 of the Postscript book.

/ISOEncode {
    dup length dict begin
	{1 index /FID ne {def} {pop pop} ifelse} forall
	/Encoding ISOLatin1Encoding def
	currentdict
    end

    % I'm not sure why it's necessary to use "definefont" on this new
    % font, but it seems to be important; just use the name "Temporary"
    % for the font.

    /Temporary exch definefont
} bind def

% StrokeClip
%
% This procedure converts the current path into a clip area under
% the assumption of stroking.  It's a bit tricky because some Postscript
% interpreters get errors during strokepath for dashed lines.  If
% this happens then turn off dashes and try again.

/StrokeClip {
    {strokepath} stopped {
	(This Postscript printer gets limitcheck overflows when) =
	(stippling dashed lines;  lines will be printed solid instead.) =
	[] 0 setdash strokepath} if
    clip
} bind def

% desiredSize EvenPixels closestSize
%
% The procedure below is used for stippling.  Given the optimal size
% of a dot in a stipple pattern in the current user coordinate system,
% compute the closest size that is an exact multiple of the device's
% pixel size.  This allows stipple patterns to be displayed without
% aliasing effects.

/EvenPixels {
    % Compute exact number of device pixels per stipple dot.
    dup 0 matrix currentmatrix dtransform
    dup mul exch dup mul add sqrt

    % Round to an integer, make sure the number is at least 1, and compute
    % user coord distance corresponding to this.
    dup round dup 1 lt {pop 1} if
    exch div mul
} bind def

% width height string StippleFill --
%
% Given a path already set up and a clipping region generated from
% it, this procedure will fill the clipping region with a stipple
% pattern.  "String" contains a proper image description of the
% stipple pattern and "width" and "height" give its dimensions.  Each
% stipple dot is assumed to be about one unit across in the current
% user coordinate system.  This procedure trashes the graphics state.

/StippleFill {
    % The following code is needed to work around a NeWSprint bug.

    /tmpstip 1 index def

    % Change the scaling so that one user unit in user coordinates
    % corresponds to the size of one stipple dot.
    1 EvenPixels dup scale

    % Compute the bounding box occupied by the path (which is now
    % the clipping region), and round the lower coordinates down
    % to the nearest starting point for the stipple pattern.  Be
    % careful about negative numbers, since the rounding works
    % differently on them.

    pathbbox
    4 2 roll
    5 index div dup 0 lt {1 sub} if cvi 5 index mul 4 1 roll
    6 index div dup 0 lt {1 sub} if cvi 6 index mul 3 2 roll

    % Stack now: width height string y1 y2 x1 x2
    % Below is a doubly-nested for loop to iterate across this area
    % in units of the stipple pattern size, going up columns then
    % across rows, blasting out a stipple-pattern-sized rectangle at
    % each position

    6 index exch {
	2 index 5 index 3 index {
	    % Stack now: width height string y1 y2 x y

	    gsave
	    1 index exch translate
	    5 index 5 index true matrix tmpstip imagemask
	    grestore
	} for
	pop
    } for
    pop pop pop pop pop
} bind def

% -- AdjustColor --
% Given a color value already set for output by the caller, adjusts
% that value to a grayscale or mono value if requested by the CL
% variable.

/AdjustColor {
    CL 2 lt {
	currentgray
	CL 0 eq {
	    .5 lt {0} {1} ifelse
	} if
	setgray
    } if
} bind def

% x y strings spacing xoffset yoffset justify stipple DrawText --
% This procedure does all of the real work of drawing text.  The
% color and font must already have been set by the caller, and the
% following arguments must be on the stack:
%
% x, y -	Coordinates at which to draw text.
% strings -	An array of strings, one for each line of the text item,
%		in order from top to bottom.
% spacing -	Spacing between lines.
% xoffset -	Horizontal offset for text bbox relative to x and y: 0 for
%		nw/w/sw anchor, -0.5 for n/center/s, and -1.0 for ne/e/se.
% yoffset -	Vertical offset for text bbox relative to x and y: 0 for
%		nw/n/ne anchor, +0.5 for w/center/e, and +1.0 for sw/s/se.
% justify -	0 for left justification, 0.5 for center, 1 for right justify.
% stipple -	Boolean value indicating whether or not text is to be
%		drawn in stippled fashion.  If text is stippled,
%		procedure StippleText must have been defined to call
%		StippleFill in the right way.
%
% Also, when this procedure is invoked, the color and font must already
% have been set for the text.

/DrawText {
    /stipple exch def
    /justify exch def
    /yoffset exch def
    /xoffset exch def
    /spacing exch def
    /strings exch def

    % First scan through all of the text to find the widest line.

    /lineLength 0 def
    strings {
	stringwidth pop
	dup lineLength gt {/lineLength exch def} {pop} ifelse
	newpath
    } forall

    % Compute the baseline offset and the actual font height.

    0 0 moveto (TXygqPZ) false charpath
    pathbbox dup /baseline exch def
    exch pop exch sub /height exch def pop
    newpath

    % Translate coordinates first so that the origin is at the upper-left
    % corner of the text's bounding box. Remember that x and y for
    % positioning are still on the stack.

    translate
    lineLength xoffset mul
    strings length 1 sub spacing mul height add yoffset mul translate

    % Now use the baseline and justification information to translate so
    % that the origin is at the baseline and positioning point for the
    % first line of text.

    justify lineLength mul baseline neg translate

    % Iterate over each of the lines to output it.  For each line,
    % compute its width again so it can be properly justified, then
    % display it.

    strings {
	dup stringwidth pop
	justify neg mul 0 moveto
	stipple {

	    % The text is stippled, so turn it into a path and print
	    % by calling StippledText, which in turn calls StippleFill.
	    % Unfortunately, many Postscript interpreters will get
	    % overflow errors if we try to do the whole string at
	    % once, so do it a character at a time.

	    gsave
	    /char (X) def
	    {
		char 0 3 -1 roll put
		currentpoint
		gsave
		char true charpath clip StippleText
		grestore
		char stringwidth translate
		moveto
	    } forall
	    grestore
	} {show} ifelse
	0 spacing neg translate
    } forall
} bind def

%%EndProlog
%%BeginSetup
/CL 2 def
%%EndSetup

%%Page: 1 1
save
306.0 396.0 translate
0.9596 0.9596 scale
-451 -121 translate
0 242 moveto 902 242 lineto 902 0 lineto 0 0 lineto closepath clip newpath
gsave
50 222 moveto 200 0 rlineto 0 -50 rlineto -200 0 rlineto closepath
3 setlinewidth 0 setlinejoin 2 setlinecap
0.000 0.000 0.000 setrgbcolor AdjustColor
stroke
grestore
gsave
57.5 222 moveto 7.5 0 rlineto 0 -50 rlineto -7.5 0 rlineto closepath
1.000 1.000 0.000 setrgbcolor AdjustColor
fill
57.5 222 moveto 7.5 0 rlineto 0 -50 rlineto -7.5 0 rlineto closepath
1 setlinewidth 0 setlinejoin 2 setlinecap
0.000 0.000 0.000 setrgbcolor AdjustColor
stroke
grestore
gsave
61.25 212 moveto
71.2675305626964 212 lineto
1 setlinewidth
0 setlinecap
1 setlinejoin
0.000 0.000 0.000 setrgbcolor AdjustColor
stroke
76.125 212 moveto
66.124 215.501 lineto
67.8383673236218 212.5 lineto
67.8383673236218 211.5 lineto
66.124 208.499 lineto
76.125 212 lineto
fill
grestore
gsave
61.25 182 moveto
71.2675305626964 182 lineto
1 setlinewidth
0 setlinecap
1 setlinejoin
0.000 0.000 0.000 setrgbcolor AdjustColor
stroke
76.125 182 moveto
66.124 185.501 lineto
67.8383673236218 182.5 lineto
67.8383673236218 181.5 lineto
66.124 178.499 lineto
76.125 182 lineto
fill
grestore
gsave
matrix currentmatrix
65 197 translate 5.00000000000001 3 scale 1 0 moveto 0 0 1 0 360 arc
setmatrix
0.000 0.000 0.000 setrgbcolor AdjustColor
fill
matrix currentmatrix
65 197 translate 5.00000000000001 3 scale 1 0 moveto 0 0 1 0 360 arc
setmatrix
1 setlinewidth 0 setlinejoin 2 setlinecap
0.000 0.000 0.000 setrgbcolor AdjustColor
stroke
grestore
gsave
70 197 moveto
95.1425305626964 197 lineto
1 setlinewidth
0 setlinecap
1 setlinejoin
0.000 0.000 0.000 setrgbcolor AdjustColor
stroke
100 197 moveto
89.999 200.501 lineto
91.7133673236218 197.5 lineto
91.7133673236218 196.5 lineto
89.999 193.499 lineto
100 197 lineto
fill
grestore
gsave
350 222 moveto 200 0 rlineto 0 -50 rlineto -200 0 rlineto closepath
3 setlinewidth 0 setlinejoin 2 setlinecap
0.000 0.000 0.000 setrgbcolor AdjustColor
stroke
grestore
gsave
400 222 moveto 50 0 rlineto 0 -50 rlineto -50 0 rlineto closepath
1.000 1.000 0.000 setrgbcolor AdjustColor
fill
400 222 moveto 50 0 rlineto 0 -50 rlineto -50 0 rlineto closepath
1 setlinewidth 0 setlinejoin 2 setlinecap
0.000 0.000 0.000 setrgbcolor AdjustColor
stroke
grestore
gsave
425 212 moveto
435.142530562696 212 lineto
1 setlinewidth
0 setlinecap
1 setlinejoin
0.000 0.000 0.000 setrgbcolor AdjustColor
stroke
440 212 moveto
429.999 215.501 lineto
431.713367323622 212.5 lineto
431.713367323622 211.5 lineto
429.999 208.499 lineto
440 212 lineto
fill
grestore
gsave
425 182 moveto
435.142530562696 182 lineto
1 setlinewidth
0 setlinecap
1 setlinejoin
0.000 0.000 0.000 setrgbcolor AdjustColor
stroke
440 182 moveto
429.999 185.501 lineto
431.713367323622 182.5 lineto
431.713367323622 181.5 lineto
429.999 178.499 lineto
440 182 lineto
fill
grestore
gsave
matrix currentmatrix
450 197 translate 5.00000000000003 3 scale 1 0 moveto 0 0 1 0 360 arc
setmatrix
0.000 0.000 0.000 setrgbcolor AdjustColor
fill
matrix currentmatrix
450 197 translate 5.00000000000003 3 scale 1 0 moveto 0 0 1 0 360 arc
setmatrix
1 setlinewidth 0 setlinejoin 2 setlinecap
0.000 0.000 0.000 setrgbcolor AdjustColor
stroke
grestore
gsave
455 197 moveto
480.142530562696 197 lineto
1 setlinewidth
0 setlinecap
1 setlinejoin
0.000 0.000 0.000 setrgbcolor AdjustColor
stroke
485 197 moveto
474.999 200.501 lineto
476.713367323622 197.5 lineto
476.713367323622 196.5 lineto
474.999 193.499 lineto
485 197 lineto
fill
grestore
gsave
matrix currentmatrix
350 197 translate 5.00000000000003 3 scale 1 0 moveto 0 0 1 0 360 arc
setmatrix
0.000 0.000 0.000 setrgbcolor AdjustColor
fill
matrix currentmatrix
350 197 translate 5.00000000000003 3 scale 1 0 moveto 0 0 1 0 360 arc
setmatrix
1 setlinewidth 0 setlinejoin 2 setlinecap
0.000 0.000 0.000 setrgbcolor AdjustColor
stroke
grestore
gsave
355 197 moveto
380.142530562696 197 lineto
1 setlinewidth
0 setlinecap
1 setlinejoin
0.000 0.000 0.000 setrgbcolor AdjustColor
stroke
385 197 moveto
374.999 200.501 lineto
376.713367323622 197.5 lineto
376.713367323622 196.5 lineto
374.999 193.499 lineto
385 197 lineto
fill
grestore
gsave
650 222 moveto 200 0 rlineto 0 -50 rlineto -200 0 rlineto closepath
3 setlinewidth 0 setlinejoin 2 setlinecap
0.000 0.000 0.000 setrgbcolor AdjustColor
stroke
grestore
gsave
750 222 moveto 100 0 rlineto 0 -50 rlineto -100 0 rlineto closepath
1.000 1.000 0.000 setrgbcolor AdjustColor
fill
750 222 moveto 100 0 rlineto 0 -50 rlineto -100 0 rlineto closepath
1 setlinewidth 0 setlinejoin 2 setlinecap
0.000 0.000 0.000 setrgbcolor AdjustColor
stroke
grestore
gsave
800 212 moveto
810.142530562696 212 lineto
1 setlinewidth
0 setlinecap
1 setlinejoin
0.000 0.000 0.000 setrgbcolor AdjustColor
stroke
815 212 moveto
804.999 215.501 lineto
806.713367323622 212.5 lineto
806.713367323622 211.5 lineto
804.999 208.499 lineto
815 212 lineto
fill
grestore
gsave
800 182 moveto
810.142530562696 182 lineto
1 setlinewidth
0 setlinecap
1 setlinejoin
0.000 0.000 0.000 setrgbcolor AdjustColor
stroke
815 182 moveto
804.999 185.501 lineto
806.713367323622 182.5 lineto
806.713367323622 181.5 lineto
804.999 178.499 lineto
815 182 lineto
fill
grestore
gsave
matrix currentmatrix
850 197 translate 5 3 scale 1 0 moveto 0 0 1 0 360 arc
setmatrix
0.000 0.000 0.000 setrgbcolor AdjustColor
fill
matrix currentmatrix
850 197 translate 5 3 scale 1 0 moveto 0 0 1 0 360 arc
setmatrix
1 setlinewidth 0 setlinejoin 2 setlinecap
0.000 0.000 0.000 setrgbcolor AdjustColor
stroke
grestore
gsave
855 197 moveto
880.142530562696 197 lineto
1 setlinewidth
0 setlinecap
1 setlinejoin
0.000 0.000 0.000 setrgbcolor AdjustColor
stroke
885 197 moveto
874.999 200.501 lineto
876.713367323622 197.5 lineto
876.713367323622 196.5 lineto
874.999 193.499 lineto
885 197 lineto
fill
grestore
gsave
matrix currentmatrix
750 197 translate 5.00000000000006 3 scale 1 0 moveto 0 0 1 0 360 arc
setmatrix
0.000 0.000 0.000 setrgbcolor AdjustColor
fill
matrix currentmatrix
750 197 translate 5.00000000000006 3 scale 1 0 moveto 0 0 1 0 360 arc
setmatrix
1 setlinewidth 0 setlinejoin 2 setlinecap
0.000 0.000 0.000 setrgbcolor AdjustColor
stroke
grestore
gsave
755 197 moveto
780.142530562696 197 lineto
1 setlinewidth
0 setlinecap
1 setlinejoin
0.000 0.000 0.000 setrgbcolor AdjustColor
stroke
785 197 moveto
774.999 200.501 lineto
776.713367323622 197.5 lineto
776.713367323622 196.5 lineto
774.999 193.499 lineto
785 197 lineto
fill
grestore
gsave
50 62 moveto 200 0 rlineto 0 -50 rlineto -200 0 rlineto closepath
3 setlinewidth 0 setlinejoin 2 setlinecap
0.000 0.000 0.000 setrgbcolor AdjustColor
stroke
grestore
gsave
175 62 moveto 75 0 rlineto 0 -50 rlineto -75 0 rlineto closepath
1.000 1.000 0.000 setrgbcolor AdjustColor
fill
175 62 moveto 75 0 rlineto 0 -50 rlineto -75 0 rlineto closepath
1 setlinewidth 0 setlinejoin 2 setlinecap
0.000 0.000 0.000 setrgbcolor AdjustColor
stroke
grestore
gsave
212.5 52 moveto
222.642530562696 52 lineto
1 setlinewidth
0 setlinecap
1 setlinejoin
0.000 0.000 0.000 setrgbcolor AdjustColor
stroke
227.5 52 moveto
217.499 55.501 lineto
219.213367323622 52.5 lineto
219.213367323622 51.5 lineto
217.499 48.499 lineto
227.5 52 lineto
fill
grestore
gsave
212.5 22 moveto
222.642530562696 22 lineto
1 setlinewidth
0 setlinecap
1 setlinejoin
0.000 0.000 0.000 setrgbcolor AdjustColor
stroke
227.5 22 moveto
217.499 25.501 lineto
219.213367323622 22.5 lineto
219.213367323622 21.5 lineto
217.499 18.499 lineto
227.5 22 lineto
fill
grestore
gsave
matrix currentmatrix
200 37 translate 5.00000000000001 3 scale 1 0 moveto 0 0 1 0 360 arc
setmatrix
0.000 0.000 0.000 setrgbcolor AdjustColor
fill
matrix currentmatrix
200 37 translate 5.00000000000001 3 scale 1 0 moveto 0 0 1 0 360 arc
setmatrix
1 setlinewidth 0 setlinejoin 2 setlinecap
0.000 0.000 0.000 setrgbcolor AdjustColor
stroke
grestore
gsave
205 37 moveto
230.142530562696 37 lineto
1 setlinewidth
0 setlinecap
1 setlinejoin
0.000 0.000 0.000 setrgbcolor AdjustColor
stroke
235 37 moveto
224.999 40.501 lineto
226.713367323622 37.5 lineto
226.713367323622 36.5 lineto
224.999 33.499 lineto
235 37 lineto
fill
grestore
gsave
350 62 moveto 200 0 rlineto 0 -50 rlineto -200 0 rlineto closepath
3 setlinewidth 0 setlinejoin 2 setlinecap
0.000 0.000 0.000 setrgbcolor AdjustColor
stroke
grestore
gsave
500 62 moveto 49.9999999999999 0 rlineto 0 -50 rlineto -49.9999999999999 0 rlineto closepath
1.000 1.000 0.000 setrgbcolor AdjustColor
fill
500 62 moveto 49.9999999999999 0 rlineto 0 -50 rlineto -49.9999999999999 0 rlineto closepath
1 setlinewidth 0 setlinejoin 2 setlinecap
0.000 0.000 0.000 setrgbcolor AdjustColor
stroke
grestore
gsave
525 52 moveto
535.142530562696 52 lineto
1 setlinewidth
0 setlinecap
1 setlinejoin
0.000 0.000 0.000 setrgbcolor AdjustColor
stroke
540 52 moveto
529.999 55.501 lineto
531.713367323622 52.5 lineto
531.713367323622 51.5 lineto
529.999 48.499 lineto
540 52 lineto
fill
grestore
gsave
525 22 moveto
535.142530562696 22 lineto
1 setlinewidth
0 setlinecap
1 setlinejoin
0.000 0.000 0.000 setrgbcolor AdjustColor
stroke
540 22 moveto
529.999 25.501 lineto
531.713367323622 22.5 lineto
531.713367323622 21.5 lineto
529.999 18.499 lineto
540 22 lineto
fill
grestore
gsave
matrix currentmatrix
550 37 translate 4.99999999999994 3 scale 1 0 moveto 0 0 1 0 360 arc
setmatrix
0.000 0.000 0.000 setrgbcolor AdjustColor
fill
matrix currentmatrix
550 37 translate 4.99999999999994 3 scale 1 0 moveto 0 0 1 0 360 arc
setmatrix
1 setlinewidth 0 setlinejoin 2 setlinecap
0.000 0.000 0.000 setrgbcolor AdjustColor
stroke
grestore
gsave
555 37 moveto
580.142530562696 37 lineto
1 setlinewidth
0 setlinecap
1 setlinejoin
0.000 0.000 0.000 setrgbcolor AdjustColor
stroke
585 37 moveto
574.999 40.501 lineto
576.713367323622 37.5 lineto
576.713367323622 36.5 lineto
574.999 33.499 lineto
585 37 lineto
fill
grestore
restore showpage

%%Trailer
end
%%EOF
