\relax 
\@writefile{toc}{\contentsline {chapter}{\numberline {1}Beamline Elements}{1}}
\@writefile{lof}{\addvspace {10\p@ }}
\@writefile{lot}{\addvspace {10\p@ }}
\@writefile{toc}{\contentsline {section}{\numberline {1.1}Accelerating Cavity}{1}}
\@writefile{toc}{\contentsline {subsection}{\numberline {1.1.1}Cavity Wakefields}{1}}
\@writefile{toc}{\contentsline {subsubsection}{Geometry Description}{1}}
\@writefile{lof}{\contentsline {figure}{\numberline {1.1}{\ignorespaces \textit  {Parameters of an accelerating cavity. All these quantities are expressed in meters}}}{1}}
\newlabel{cav_geom}{{1.1}{1}}
\@writefile{toc}{\contentsline {section}{\numberline {1.2}Other Elements}{2}}
\@writefile{toc}{\contentsline {subsection}{\numberline {1.2.1}\texttt  {ReferencePoint}}{2}}
\@writefile{toc}{\contentsline {section}{\numberline {1.3}Quadrupole}{2}}
