\contentsline {chapter}{\numberline {1}Beamline Elements}{2}
\contentsline {section}{\numberline {1.1}Accelerating Cavity}{2}
\contentsline {subsection}{\numberline {1.1.1}Cavity Wakefields}{2}
\contentsline {subsubsection}{Geometry Description}{2}
\contentsline {section}{\numberline {1.2}Other Elements}{3}
\contentsline {subsection}{\numberline {1.2.1}\texttt {ReferencePoint}}{3}
